<?xml version="1.0" encoding="UTF-8" standalone="no"?><svg xmlns="http://www.w3.org/2000/svg" xmlns:xlink="http://www.w3.org/1999/xlink" contentScriptType="application/ecmascript" contentStyleType="text/css" height="170px" preserveAspectRatio="none" style="width:637px;height:170px;" version="1.1" viewBox="0 0 637 170" width="637px" zoomAndPan="magnify"><defs><filter height="300%" id="f11g9adsdkmmi8" width="300%" x="-1" y="-1"><feGaussianBlur result="blurOut" stdDeviation="2.0"/><feColorMatrix in="blurOut" result="blurOut2" type="matrix" values="0 0 0 0 0 0 0 0 0 0 0 0 0 0 0 0 0 0 .4 0"/><feOffset dx="4.0" dy="4.0" in="blurOut2" result="blurOut3"/><feBlend in="SourceGraphic" in2="blurOut3" mode="normal"/></filter></defs><g><!--class Rental--><rect fill="#FEFECE" filter="url(#f11g9adsdkmmi8)" height="151.6406" id="Rental" style="stroke: #A80036; stroke-width: 1.5;" width="187" x="199.5" y="8"/><ellipse cx="270.75" cy="24" fill="#ADD1B2" rx="11" ry="11" style="stroke: #A80036; stroke-width: 1.0;"/><path d="M273.2231,30.1431 Q272.6421,30.4419 272.0029,30.5913 Q271.3638,30.7407 270.6582,30.7407 Q268.1514,30.7407 266.8315,29.0889 Q265.5117,27.437 265.5117,24.3159 Q265.5117,21.1865 266.8315,19.5347 Q268.1514,17.8828 270.6582,17.8828 Q271.3638,17.8828 272.0112,18.0322 Q272.6587,18.1816 273.2231,18.4805 L273.2231,21.2031 Q272.5923,20.6221 271.9988,20.3523 Q271.4053,20.0825 270.7744,20.0825 Q269.4297,20.0825 268.7449,21.1492 Q268.0601,22.2158 268.0601,24.3159 Q268.0601,26.4077 268.7449,27.4744 Q269.4297,28.541 270.7744,28.541 Q271.4053,28.541 271.9988,28.2712 Q272.5923,28.0015 273.2231,27.4204 Z "/><text fill="#000000" font-family="sans-serif" font-size="12" lengthAdjust="spacingAndGlyphs" textLength="36" x="291.25" y="28.5352">Rental</text><line style="stroke: #A80036; stroke-width: 1.5;" x1="200.5" x2="385.5" y1="40" y2="40"/><rect fill="none" height="6" style="stroke: #C82930; stroke-width: 1.0;" width="6" x="207.5" y="48.9775"/><text fill="#000000" font-family="sans-serif" font-size="11" lengthAdjust="spacingAndGlyphs" textLength="72" x="219.5" y="54.6348">Movie _movie</text><rect fill="none" height="6" style="stroke: #C82930; stroke-width: 1.0;" width="6" x="207.5" y="61.9326"/><text fill="#000000" font-family="sans-serif" font-size="11" lengthAdjust="spacingAndGlyphs" textLength="85" x="219.5" y="67.5898">int _daysRented</text><line style="stroke: #A80036; stroke-width: 1.5;" x1="200.5" x2="385.5" y1="73.9102" y2="73.9102"/><ellipse cx="210.5" cy="85.8877" fill="#84BE84" rx="3" ry="3" style="stroke: #038048; stroke-width: 1.0;"/><text fill="#000000" font-family="sans-serif" font-size="11" lengthAdjust="spacingAndGlyphs" textLength="160" x="219.5" y="88.5449">Rental (Movie, int daysRented)</text><ellipse cx="210.5" cy="98.8428" fill="#84BE84" rx="3" ry="3" style="stroke: #038048; stroke-width: 1.0;"/><text fill="#000000" font-family="sans-serif" font-size="11" lengthAdjust="spacingAndGlyphs" textLength="107" x="219.5" y="101.5">double getCharge ()</text><ellipse cx="210.5" cy="111.7979" fill="#84BE84" rx="3" ry="3" style="stroke: #038048; stroke-width: 1.0;"/><text fill="#000000" font-family="sans-serif" font-size="11" lengthAdjust="spacingAndGlyphs" textLength="108" x="219.5" y="114.4551">int getDaysRented ()</text><ellipse cx="210.5" cy="124.7529" fill="#84BE84" rx="3" ry="3" style="stroke: #038048; stroke-width: 1.0;"/><text fill="#000000" font-family="sans-serif" font-size="11" lengthAdjust="spacingAndGlyphs" textLength="161" x="219.5" y="127.4102">int getFrequentRenterPoints ()</text><ellipse cx="210.5" cy="137.708" fill="#84BE84" rx="3" ry="3" style="stroke: #038048; stroke-width: 1.0;"/><text fill="#000000" font-family="sans-serif" font-size="11" lengthAdjust="spacingAndGlyphs" textLength="93" x="219.5" y="140.3652">Movie getMovie ()</text><ellipse cx="210.5" cy="150.6631" fill="#84BE84" rx="3" ry="3" style="stroke: #038048; stroke-width: 1.0;"/><text fill="#000000" font-family="sans-serif" font-size="11" lengthAdjust="spacingAndGlyphs" textLength="116" x="219.5" y="153.3203">String getStatement ()</text><!--class Movie--><rect fill="#FEFECE" filter="url(#f11g9adsdkmmi8)" height="125.7305" id="Movie" style="stroke: #A80036; stroke-width: 1.5;" width="205" x="421.5" y="21"/><ellipse cx="503.25" cy="37" fill="#ADD1B2" rx="11" ry="11" style="stroke: #A80036; stroke-width: 1.0;"/><path d="M505.7231,43.1431 Q505.1421,43.4419 504.5029,43.5913 Q503.8638,43.7407 503.1582,43.7407 Q500.6514,43.7407 499.3315,42.0889 Q498.0117,40.437 498.0117,37.3159 Q498.0117,34.1865 499.3315,32.5347 Q500.6514,30.8828 503.1582,30.8828 Q503.8638,30.8828 504.5112,31.0322 Q505.1587,31.1816 505.7231,31.4805 L505.7231,34.2031 Q505.0923,33.6221 504.4988,33.3523 Q503.9053,33.0825 503.2744,33.0825 Q501.9297,33.0825 501.2449,34.1492 Q500.5601,35.2158 500.5601,37.3159 Q500.5601,39.4077 501.2449,40.4744 Q501.9297,41.541 503.2744,41.541 Q503.9053,41.541 504.4988,41.2712 Q505.0923,41.0015 505.7231,40.4204 Z "/><text fill="#000000" font-family="sans-serif" font-size="12" lengthAdjust="spacingAndGlyphs" textLength="33" x="523.75" y="41.5352">Movie</text><line style="stroke: #A80036; stroke-width: 1.5;" x1="422.5" x2="625.5" y1="53" y2="53"/><rect fill="none" height="6" style="stroke: #C82930; stroke-width: 1.0;" width="6" x="429.5" y="61.9775"/><text fill="#000000" font-family="sans-serif" font-size="11" lengthAdjust="spacingAndGlyphs" textLength="61" x="441.5" y="67.6348">String _title</text><rect fill="none" height="6" style="stroke: #C82930; stroke-width: 1.0;" width="6" x="429.5" y="74.9326"/><text fill="#000000" font-family="sans-serif" font-size="11" lengthAdjust="spacingAndGlyphs" textLength="78" x="441.5" y="80.5898">int _priceCode</text><line style="stroke: #A80036; stroke-width: 1.5;" x1="422.5" x2="625.5" y1="86.9102" y2="86.9102"/><ellipse cx="432.5" cy="98.8877" fill="#84BE84" rx="3" ry="3" style="stroke: #038048; stroke-width: 1.0;"/><text fill="#000000" font-family="sans-serif" font-size="11" lengthAdjust="spacingAndGlyphs" textLength="175" x="441.5" y="101.5449">Movie (String title, int priceCode)</text><ellipse cx="432.5" cy="111.8428" fill="#84BE84" rx="3" ry="3" style="stroke: #038048; stroke-width: 1.0;"/><text fill="#000000" font-family="sans-serif" font-size="11" lengthAdjust="spacingAndGlyphs" textLength="99" x="441.5" y="114.5">int getPriceCode ()</text><ellipse cx="432.5" cy="124.7979" fill="#84BE84" rx="3" ry="3" style="stroke: #038048; stroke-width: 1.0;"/><text fill="#000000" font-family="sans-serif" font-size="11" lengthAdjust="spacingAndGlyphs" textLength="86" x="441.5" y="127.4551">String getTitle ()</text><ellipse cx="432.5" cy="137.7529" fill="#84BE84" rx="3" ry="3" style="stroke: #038048; stroke-width: 1.0;"/><text fill="#000000" font-family="sans-serif" font-size="11" lengthAdjust="spacingAndGlyphs" textLength="179" x="441.5" y="140.4102">void setPriceCode (int priceCode)</text><!--class Customer--><rect fill="#FEFECE" filter="url(#f11g9adsdkmmi8)" height="125.7305" id="Customer" style="stroke: #A80036; stroke-width: 1.5;" width="158" x="6" y="21"/><ellipse cx="53.25" cy="37" fill="#ADD1B2" rx="11" ry="11" style="stroke: #A80036; stroke-width: 1.0;"/><path d="M55.7231,43.1431 Q55.1421,43.4419 54.5029,43.5913 Q53.8638,43.7407 53.1582,43.7407 Q50.6514,43.7407 49.3315,42.0889 Q48.0117,40.437 48.0117,37.3159 Q48.0117,34.1865 49.3315,32.5347 Q50.6514,30.8828 53.1582,30.8828 Q53.8638,30.8828 54.5112,31.0322 Q55.1587,31.1816 55.7231,31.4805 L55.7231,34.2031 Q55.0923,33.6221 54.4988,33.3523 Q53.9053,33.0825 53.2744,33.0825 Q51.9297,33.0825 51.2449,34.1492 Q50.5601,35.2158 50.5601,37.3159 Q50.5601,39.4077 51.2449,40.4744 Q51.9297,41.541 53.2744,41.541 Q53.9053,41.541 54.4988,41.2712 Q55.0923,41.0015 55.7231,40.4204 Z "/><text fill="#000000" font-family="sans-serif" font-size="12" lengthAdjust="spacingAndGlyphs" textLength="55" x="73.75" y="41.5352">Customer</text><line style="stroke: #A80036; stroke-width: 1.5;" x1="7" x2="163" y1="53" y2="53"/><rect fill="none" height="6" style="stroke: #C82930; stroke-width: 1.0;" width="6" x="14" y="61.9775"/><text fill="#000000" font-family="sans-serif" font-size="11" lengthAdjust="spacingAndGlyphs" textLength="70" x="26" y="67.6348">String _name</text><rect fill="none" height="6" style="stroke: #C82930; stroke-width: 1.0;" width="6" x="14" y="74.9326"/><text fill="#000000" font-family="sans-serif" font-size="11" lengthAdjust="spacingAndGlyphs" textLength="132" x="26" y="80.5898">Vector&lt;Rental&gt; _rentals</text><line style="stroke: #A80036; stroke-width: 1.5;" x1="7" x2="163" y1="86.9102" y2="86.9102"/><ellipse cx="17" cy="98.8877" fill="#84BE84" rx="3" ry="3" style="stroke: #038048; stroke-width: 1.0;"/><text fill="#000000" font-family="sans-serif" font-size="11" lengthAdjust="spacingAndGlyphs" textLength="128" x="26" y="101.5449">Customer (String name)</text><ellipse cx="17" cy="111.8428" fill="#84BE84" rx="3" ry="3" style="stroke: #038048; stroke-width: 1.0;"/><text fill="#000000" font-family="sans-serif" font-size="11" lengthAdjust="spacingAndGlyphs" textLength="123" x="26" y="114.5">void addRental (Rental)</text><ellipse cx="17" cy="124.7979" fill="#84BE84" rx="3" ry="3" style="stroke: #038048; stroke-width: 1.0;"/><text fill="#000000" font-family="sans-serif" font-size="11" lengthAdjust="spacingAndGlyphs" textLength="93" x="26" y="127.4551">String getName ()</text><ellipse cx="17" cy="137.7529" fill="#84BE84" rx="3" ry="3" style="stroke: #038048; stroke-width: 1.0;"/><text fill="#000000" font-family="sans-serif" font-size="11" lengthAdjust="spacingAndGlyphs" textLength="99" x="26" y="140.4102">String statement ()</text><!--link Rental to Movie--><path d="M400.0726,84 C407.182,84 414.2913,84 421.4007,84 " fill="none" id="Rental-Movie" style="stroke: #A80036; stroke-width: 1.0;"/><polygon fill="#FFFFFF" points="386.8438,84,392.8438,88,398.8438,84,392.8438,80,386.8438,84" style="stroke: #A80036; stroke-width: 1.0;"/><text fill="#000000" font-family="sans-serif" font-size="13" lengthAdjust="spacingAndGlyphs" textLength="6" x="394.561" y="80.9974">*</text><text fill="#000000" font-family="sans-serif" font-size="13" lengthAdjust="spacingAndGlyphs" textLength="8" x="405.5723" y="81.0389">1</text><!--link Customer to Rental--><path d="M177.4239,84 C184.76,84 192.0962,84 199.4324,84 " fill="none" id="Customer-Rental" style="stroke: #A80036; stroke-width: 1.0;"/><polygon fill="#A80036" points="164.2188,84,170.2188,88,176.2188,84,170.2188,80,164.2188,84" style="stroke: #A80036; stroke-width: 1.0;"/><text fill="#000000" font-family="sans-serif" font-size="13" lengthAdjust="spacingAndGlyphs" textLength="8" x="171.8905" y="80.9037">1</text><text fill="#000000" font-family="sans-serif" font-size="13" lengthAdjust="spacingAndGlyphs" textLength="6" x="185.4354" y="80.975">*</text><!--
@startuml
Rental   "*" o- "1" Movie
Customer "1" *- "*" Rental

class Movie {
    - String _title
    - int _priceCode
    + Movie (String title, int priceCode)
    + int getPriceCode ()
    + String getTitle ()
    + void setPriceCode (int priceCode)
    }

class Rental {
    - Movie _movie
    - int _daysRented
    + Rental (Movie, int daysRented)
    + double getCharge ()
    + int getDaysRented ()
    + int getFrequentRenterPoints ()
    + Movie getMovie ()
    + String getStatement ()
    }

class Customer {
    - String _name
    - Vector<Rental> _rentals
    + Customer (String name)
    + void addRental (Rental)
    + String getName ()
    + String statement ()
    }

@enduml

PlantUML version 1.2019.03(Sun Mar 10 06:04:44 CDT 2019)
(GPL source distribution)
Java Runtime: Java(TM) SE Runtime Environment
JVM: Java HotSpot(TM) 64-Bit Server VM
Java Version: 10.0.2+13
Operating System: Mac OS X
OS Version: 10.14.4
Default Encoding: UTF-8
Language: en
Country: US
--></g></svg>