<?xml version="1.0" encoding="UTF-8" standalone="no"?><svg xmlns="http://www.w3.org/2000/svg" xmlns:xlink="http://www.w3.org/1999/xlink" contentScriptType="application/ecmascript" contentStyleType="text/css" height="144px" preserveAspectRatio="none" style="width:636px;height:144px;" version="1.1" viewBox="0 0 636 144" width="636px" zoomAndPan="magnify"><defs><filter height="300%" id="fw0geilng5tgk" width="300%" x="-1" y="-1"><feGaussianBlur result="blurOut" stdDeviation="2.0"/><feColorMatrix in="blurOut" result="blurOut2" type="matrix" values="0 0 0 0 0 0 0 0 0 0 0 0 0 0 0 0 0 0 .4 0"/><feOffset dx="4.0" dy="4.0" in="blurOut2" result="blurOut3"/><feBlend in="SourceGraphic" in2="blurOut3" mode="normal"/></filter></defs><g><!--class Rental--><rect fill="#FEFECE" filter="url(#fw0geilng5tgk)" height="112.7754" id="Rental" style="stroke: #A80036; stroke-width: 1.5;" width="186" x="199" y="14.5"/><ellipse cx="269.75" cy="30.5" fill="#ADD1B2" rx="11" ry="11" style="stroke: #A80036; stroke-width: 1.0;"/><path d="M272.2231,36.6431 Q271.6421,36.9419 271.0029,37.0913 Q270.3638,37.2407 269.6582,37.2407 Q267.1514,37.2407 265.8315,35.5889 Q264.5117,33.937 264.5117,30.8159 Q264.5117,27.6865 265.8315,26.0347 Q267.1514,24.3828 269.6582,24.3828 Q270.3638,24.3828 271.0112,24.5322 Q271.6587,24.6816 272.2231,24.9805 L272.2231,27.7031 Q271.5923,27.1221 270.9988,26.8523 Q270.4053,26.5825 269.7744,26.5825 Q268.4297,26.5825 267.7449,27.6492 Q267.0601,28.7158 267.0601,30.8159 Q267.0601,32.9077 267.7449,33.9744 Q268.4297,35.041 269.7744,35.041 Q270.4053,35.041 270.9988,34.7712 Q271.5923,34.5015 272.2231,33.9204 Z "/><text fill="#000000" font-family="sans-serif" font-size="12" lengthAdjust="spacingAndGlyphs" textLength="36" x="290.25" y="35.0352">Rental</text><line style="stroke: #A80036; stroke-width: 1.5;" x1="200" x2="384" y1="46.5" y2="46.5"/><rect fill="none" height="6" style="stroke: #C82930; stroke-width: 1.0;" width="6" x="207" y="55.4775"/><text fill="#000000" font-family="sans-serif" font-size="11" lengthAdjust="spacingAndGlyphs" textLength="72" x="219" y="61.1348">Movie _movie</text><rect fill="none" height="6" style="stroke: #C82930; stroke-width: 1.0;" width="6" x="207" y="68.4326"/><text fill="#000000" font-family="sans-serif" font-size="11" lengthAdjust="spacingAndGlyphs" textLength="85" x="219" y="74.0898">int _daysRented</text><line style="stroke: #A80036; stroke-width: 1.5;" x1="200" x2="384" y1="80.4102" y2="80.4102"/><ellipse cx="210" cy="92.3877" fill="#84BE84" rx="3" ry="3" style="stroke: #038048; stroke-width: 1.0;"/><text fill="#000000" font-family="sans-serif" font-size="11" lengthAdjust="spacingAndGlyphs" textLength="160" x="219" y="95.0449">Rental (Movie, int daysRented)</text><ellipse cx="210" cy="105.3428" fill="#84BE84" rx="3" ry="3" style="stroke: #038048; stroke-width: 1.0;"/><text fill="#000000" font-family="sans-serif" font-size="11" lengthAdjust="spacingAndGlyphs" textLength="108" x="219" y="108">int getDaysRented ()</text><ellipse cx="210" cy="118.2979" fill="#84BE84" rx="3" ry="3" style="stroke: #038048; stroke-width: 1.0;"/><text fill="#000000" font-family="sans-serif" font-size="11" lengthAdjust="spacingAndGlyphs" textLength="93" x="219" y="120.9551">Movie getMovie ()</text><!--class Movie--><rect fill="#FEFECE" filter="url(#fw0geilng5tgk)" height="125.7305" id="Movie" style="stroke: #A80036; stroke-width: 1.5;" width="205" x="420.5" y="8"/><ellipse cx="502.25" cy="24" fill="#ADD1B2" rx="11" ry="11" style="stroke: #A80036; stroke-width: 1.0;"/><path d="M504.7231,30.1431 Q504.1421,30.4419 503.5029,30.5913 Q502.8638,30.7407 502.1582,30.7407 Q499.6514,30.7407 498.3315,29.0889 Q497.0117,27.437 497.0117,24.3159 Q497.0117,21.1865 498.3315,19.5347 Q499.6514,17.8828 502.1582,17.8828 Q502.8638,17.8828 503.5112,18.0322 Q504.1587,18.1816 504.7231,18.4805 L504.7231,21.2031 Q504.0923,20.6221 503.4988,20.3523 Q502.9053,20.0825 502.2744,20.0825 Q500.9297,20.0825 500.2449,21.1492 Q499.5601,22.2158 499.5601,24.3159 Q499.5601,26.4077 500.2449,27.4744 Q500.9297,28.541 502.2744,28.541 Q502.9053,28.541 503.4988,28.2712 Q504.0923,28.0015 504.7231,27.4204 Z "/><text fill="#000000" font-family="sans-serif" font-size="12" lengthAdjust="spacingAndGlyphs" textLength="33" x="522.75" y="28.5352">Movie</text><line style="stroke: #A80036; stroke-width: 1.5;" x1="421.5" x2="624.5" y1="40" y2="40"/><rect fill="none" height="6" style="stroke: #C82930; stroke-width: 1.0;" width="6" x="428.5" y="48.9775"/><text fill="#000000" font-family="sans-serif" font-size="11" lengthAdjust="spacingAndGlyphs" textLength="61" x="440.5" y="54.6348">String _title</text><rect fill="none" height="6" style="stroke: #C82930; stroke-width: 1.0;" width="6" x="428.5" y="61.9326"/><text fill="#000000" font-family="sans-serif" font-size="11" lengthAdjust="spacingAndGlyphs" textLength="78" x="440.5" y="67.5898">int _priceCode</text><line style="stroke: #A80036; stroke-width: 1.5;" x1="421.5" x2="624.5" y1="73.9102" y2="73.9102"/><ellipse cx="431.5" cy="85.8877" fill="#84BE84" rx="3" ry="3" style="stroke: #038048; stroke-width: 1.0;"/><text fill="#000000" font-family="sans-serif" font-size="11" lengthAdjust="spacingAndGlyphs" textLength="175" x="440.5" y="88.5449">Movie (String title, int priceCode)</text><ellipse cx="431.5" cy="98.8428" fill="#84BE84" rx="3" ry="3" style="stroke: #038048; stroke-width: 1.0;"/><text fill="#000000" font-family="sans-serif" font-size="11" lengthAdjust="spacingAndGlyphs" textLength="99" x="440.5" y="101.5">int getPriceCode ()</text><ellipse cx="431.5" cy="111.7979" fill="#84BE84" rx="3" ry="3" style="stroke: #038048; stroke-width: 1.0;"/><text fill="#000000" font-family="sans-serif" font-size="11" lengthAdjust="spacingAndGlyphs" textLength="86" x="440.5" y="114.4551">String getTitle ()</text><ellipse cx="431.5" cy="124.7529" fill="#84BE84" rx="3" ry="3" style="stroke: #038048; stroke-width: 1.0;"/><text fill="#000000" font-family="sans-serif" font-size="11" lengthAdjust="spacingAndGlyphs" textLength="179" x="440.5" y="127.4102">void setPriceCode (int priceCode)</text><!--class Customer--><rect fill="#FEFECE" filter="url(#fw0geilng5tgk)" height="125.7305" id="Customer" style="stroke: #A80036; stroke-width: 1.5;" width="158" x="6" y="8"/><ellipse cx="53.25" cy="24" fill="#ADD1B2" rx="11" ry="11" style="stroke: #A80036; stroke-width: 1.0;"/><path d="M55.7231,30.1431 Q55.1421,30.4419 54.5029,30.5913 Q53.8638,30.7407 53.1582,30.7407 Q50.6514,30.7407 49.3315,29.0889 Q48.0117,27.437 48.0117,24.3159 Q48.0117,21.1865 49.3315,19.5347 Q50.6514,17.8828 53.1582,17.8828 Q53.8638,17.8828 54.5112,18.0322 Q55.1587,18.1816 55.7231,18.4805 L55.7231,21.2031 Q55.0923,20.6221 54.4988,20.3523 Q53.9053,20.0825 53.2744,20.0825 Q51.9297,20.0825 51.2449,21.1492 Q50.5601,22.2158 50.5601,24.3159 Q50.5601,26.4077 51.2449,27.4744 Q51.9297,28.541 53.2744,28.541 Q53.9053,28.541 54.4988,28.2712 Q55.0923,28.0015 55.7231,27.4204 Z "/><text fill="#000000" font-family="sans-serif" font-size="12" lengthAdjust="spacingAndGlyphs" textLength="55" x="73.75" y="28.5352">Customer</text><line style="stroke: #A80036; stroke-width: 1.5;" x1="7" x2="163" y1="40" y2="40"/><rect fill="none" height="6" style="stroke: #C82930; stroke-width: 1.0;" width="6" x="14" y="48.9775"/><text fill="#000000" font-family="sans-serif" font-size="11" lengthAdjust="spacingAndGlyphs" textLength="70" x="26" y="54.6348">String _name</text><rect fill="none" height="6" style="stroke: #C82930; stroke-width: 1.0;" width="6" x="14" y="61.9326"/><text fill="#000000" font-family="sans-serif" font-size="11" lengthAdjust="spacingAndGlyphs" textLength="132" x="26" y="67.5898">Vector&lt;Rental&gt; _rentals</text><line style="stroke: #A80036; stroke-width: 1.5;" x1="7" x2="163" y1="73.9102" y2="73.9102"/><ellipse cx="17" cy="85.8877" fill="#84BE84" rx="3" ry="3" style="stroke: #038048; stroke-width: 1.0;"/><text fill="#000000" font-family="sans-serif" font-size="11" lengthAdjust="spacingAndGlyphs" textLength="128" x="26" y="88.5449">Customer (String name)</text><ellipse cx="17" cy="98.8428" fill="#84BE84" rx="3" ry="3" style="stroke: #038048; stroke-width: 1.0;"/><text fill="#000000" font-family="sans-serif" font-size="11" lengthAdjust="spacingAndGlyphs" textLength="123" x="26" y="101.5">void addRental (Rental)</text><ellipse cx="17" cy="111.7979" fill="#84BE84" rx="3" ry="3" style="stroke: #038048; stroke-width: 1.0;"/><text fill="#000000" font-family="sans-serif" font-size="11" lengthAdjust="spacingAndGlyphs" textLength="93" x="26" y="114.4551">String getName ()</text><ellipse cx="17" cy="124.7529" fill="#84BE84" rx="3" ry="3" style="stroke: #038048; stroke-width: 1.0;"/><text fill="#000000" font-family="sans-serif" font-size="11" lengthAdjust="spacingAndGlyphs" textLength="99" x="26" y="127.4102">String statement ()</text><!--link Rental to Movie--><path d="M398.4948,71 C405.7739,71 413.0529,71 420.332,71 " fill="none" id="Rental-Movie" style="stroke: #A80036; stroke-width: 1.0;"/><polygon fill="#FFFFFF" points="385.3926,71,391.3926,75,397.3926,71,391.3926,67,385.3926,71" style="stroke: #A80036; stroke-width: 1.0;"/><text fill="#000000" font-family="sans-serif" font-size="13" lengthAdjust="spacingAndGlyphs" textLength="6" x="393.0739" y="67.992">*</text><text fill="#000000" font-family="sans-serif" font-size="13" lengthAdjust="spacingAndGlyphs" textLength="8" x="404.4986" y="68.0389">1</text><!--link Customer to Rental--><path d="M177.4242,71 C184.5085,71 191.5927,71 198.6769,71 " fill="none" id="Customer-Rental" style="stroke: #A80036; stroke-width: 1.0;"/><polygon fill="#A80036" points="164.2422,71,170.2422,75,176.2422,71,170.2422,67,164.2422,71" style="stroke: #A80036; stroke-width: 1.0;"/><text fill="#000000" font-family="sans-serif" font-size="13" lengthAdjust="spacingAndGlyphs" textLength="8" x="171.9161" y="67.9037">1</text><text fill="#000000" font-family="sans-serif" font-size="13" lengthAdjust="spacingAndGlyphs" textLength="6" x="185.0012" y="67.992">*</text><!--
@startuml
Rental   "*" o- "1" Movie
Customer "1" *- "*" Rental

class Movie {
    - String _title
    - int _priceCode
    + Movie (String title, int priceCode)
    + int getPriceCode ()
    + String getTitle ()
    + void setPriceCode (int priceCode)
    }

class Rental {
    - Movie _movie
    - int _daysRented
    + Rental (Movie, int daysRented)
    + int getDaysRented ()
    + Movie getMovie ()
    }

class Customer {
    - String _name
    - Vector<Rental> _rentals
    + Customer (String name)
    + void addRental (Rental)
    + String getName ()
    + String statement ()
    }

@enduml

PlantUML version 1.2019.03(Sun Mar 10 06:04:44 CDT 2019)
(GPL source distribution)
Java Runtime: Java(TM) SE Runtime Environment
JVM: Java HotSpot(TM) 64-Bit Server VM
Java Version: 10.0.2+13
Operating System: Mac OS X
OS Version: 10.14.4
Default Encoding: UTF-8
Language: en
Country: US
--></g></svg>